…
### Simulated Data

``` r
data1
#> # A tibble: 1,000 x 3
#>       t0    d0     z
#>    <dbl> <dbl> <dbl>
#>  1     1     1     2
#>  2     5     0     0
#>  3     1     1     2
#>  4     2     1     2
#>  5     5     0     0
#>  6     2     1     0
#>  7     3     1     0
#>  8     1     1     2
#>  9     3     1     0
#> 10     5     1     0
#> # … with 990 more rows
```
…
