…
### Simulated Data

``` r
data2
#> # A tibble: 1,000 x 3
#>       t0    d0     z
#>    <dbl> <dbl> <dbl>
#>  1     2     1 2.25 
#>  2     1     1 2.06 
#>  3     1     1 3.14 
#>  4     5     0 0.590
#>  5     5     0 0.717
#>  6     2     1 1.40 
#>  7     1     1 3.29 
#>  8     2     1 0.883
#>  9     1     1 4.24 
#> 10     1     1 1.12 
#> # … with 990 more rows
```
…
