…
### Simulated Data

``` r
data1
#> # A tibble: 1,000 x 3
#>       t0    d0     z
#>    <dbl> <dbl> <dbl>
#>  1     3     1     2
#>  2     4     1     0
#>  3     5     0     0
#>  4     5     0     0
#>  5     3     1     2
#>  6     2     1     2
#>  7     1     1     2
#>  8     3     1     2
#>  9     2     1     2
#> 10     1     1     0
#> # … with 990 more rows
```
…
