…
### Simulated Data

``` r
data2
#> # A tibble: 1,000 x 3
#>       t0    d0     z
#>    <dbl> <dbl> <dbl>
#>  1     3     1 1.39 
#>  2     1     1 2.85 
#>  3     5     0 1.96 
#>  4     1     1 2.70 
#>  5     2     1 1.48 
#>  6     1     1 1.39 
#>  7     1     1 3.01 
#>  8     2     1 1.86 
#>  9     1     1 2.85 
#> 10     4     1 0.670
#> # … with 990 more rows
```
…
